[
    {
        "id": "EN",
        "mainMenu": {
            "home": {
                "title": "Home"
            },
            "trainings": {
                "title": "Trainings",
                "history": "History",
                "dynamicsRehab": "Dynamics of rehabilitation",
                "settings": "Settings",
                "attention": {
                    "title": "Attention",
                    "alertness": "Alertness",
                    "reactionBehaviour": "Reaction Behaviour",
                    "responsiveness": "Responsiveness",
                    "vigilance": "Vigilance",
                    "spatialOperations": "Spatial Operations",
                    "twoDOperations": "Two-Dimensional Operations",
                    "threeDOperations": "Spatial Operations 3D",
                    "attentionConcentration": "Attention and Concentration",
                    "dividedAttention": "Divided Attention"
                },
                "memory": {
                    "title": "Memory",
                    "workingMemory": "Working Memory",
                    "topologicalMemory": "Topological Memory",
                    "physiognomicMemory": "Physiognomic Memory",
                    "memoryWords": "Memory for Words",
                    "figuralMemory": "Figural Memory",
                    "verbalMemory": "Verbal Memory"
                },
                "executiveFunc": {
                    "title": "Executive functions",
                    "shopping": "Shopping",
                    "planHoliDay": "Plan a HoliDay",
                    "logicalReasoning": "Logical Reasoning",
                    "calculations": "Calculations"
                },
                "visualField": {
                    "title": "Visual field training",
                    "saccadicTraining": "Saccadic Training",
                    "exploration": "Exploration",
                    "overviewReading": "Overview and Reading"
                }
            },
            "screening": {
                "title": "Screening"
            },
            "help": {
                "title": "Help"
            }
        },
        "messageBox": {
            "info": "INFORMATION",
            "warning": "WARNING",
            "error": "ERROR"
        },
        "messageBoxText": {
            "loginEnteredDataIncorrect": "Entered data does not meet the rules.",
            "connectionError": "Connection error.",
            "loginLoginPasswordIncorrect": "Incorrect data login/password.",
            "registerSuccess": "Registration Successful!",
            "registerErrorUserExists": "Registration error! User already exists.",
            "resetEnteredDataIncorrect": "Incorrect data for password reset.",
            "resetSuccess": "Password reset successful.",
            "resetError": "Password reset Error.",
            "changePassDataIncorrect": "New Password data incorrect.",
            "changePassSuccess": "Password changed successful!",
            "unauthorized": "Unauthorized! Relogin, please, and try again.",
            "changePassIncorrectOldPass": "Invalid old password."
        }
    },
    {
        "id": "UK",
        "mainMenu": {
            "home": {
                "title": "Головна"
            },
            "trainings": {
                "title": "Тренінги",
                "history": "Історія",
                "dynamicsRehab": "Динаміка реабілітації",
                "settings": "Налаштування",
                "attention": {
                    "title": "Увага",
                    "alertness": "Пильність в реакціях",
                    "reactionBehaviour": "Реактивна поведінка",
                    "responsiveness": "Відповідність",
                    "vigilance": "Уважність",
                    "spatialOperations": "Просторові операції",
                    "twoDOperations": "Двовимірні операції",
                    "threeDOperations": "Тривимірні операції",
                    "attentionConcentration": "Увага та концентрація",
                    "dividedAttention": "Розділена увага"
                },
                "memory": {
                    "title": "Пам'ять",
                    "workingMemory": "Робоча пам'ять",
                    "topologicalMemory": "Топологічна пам'ять",
                    "physiognomicMemory": "Фізіогномічна пам'ять",
                    "memoryWords": "Пам'ять на слова",
                    "figuralMemory": "Фігурна пам'ять",
                    "verbalMemory": "Вербальна пам'ять"
                },
                "executiveFunc": {
                    "title": "Виконавчі функції",
                    "shopping": "Покупки",
                    "planHoliDay": "Планування вихідного дня",
                    "logicalReasoning": "Логічне мислення",
                    "calculations": "Обчислення"
                },
                "visualField": {
                    "title": "Візуальне поле зору",
                    "saccadicTraining": "Саккадичний тренінг",
                    "exploration": "Дослідження",
                    "overviewReading": "Огляд та читання"
                }
            },
            "screening": {
                "title": "Скрінинг"
            },
            "help": {
                "title": "Допомога"
            }
        },
        "messageBox": {
            "info": "ІНФОРМАЦІЯ",
            "warning": "ПОПЕРЕДЖЕННЯ",
            "error": "ПОМИЛКА"
        },
        "messageBoxText": {
            "loginEnteredDataIncorrect": "Введені дані не відповідають правилами.",
            "connectionError": "Помилка з'єднання.",
            "loginLoginPasswordIncorrect": "Невірний логін / пароль.",
            "registerSuccess": "Реєстрація успішна!",
            "registerErrorUserExists": "Помилка реєстрації! Користувач вже існує.",
            "resetEnteredDataIncorrect": "Неправильні дані для скидання пароля.",
            "resetSuccess": "Пароль успішно скинуто.",
            "resetError": "Помилка скидання пароля.",
            "changePassDataIncorrect": "Некоректні дані нового пароля.",
            "changePassSuccess": "Пароль успішно змінено!",
            "unauthorized": "Ви не авторизовані! Виконайте повторний логій.",
            "changePassIncorrectOldPass": "Некоректний старий пароль."
        }
    },
    {
        "id": "RU",
        "mainMenu": {
            "home": {
                "title": "Главная"
            },
            "trainings": {
                "title": "Тренинги",
                "history": "История",
                "dynamicsRehab": "Динамика реабилитации",
                "settings": "Настройки",
                "attention": {
                    "title": "Внимание",
                    "alertness": "Бдительность в реакциях",
                    "reactionBehaviour": "Реактивное поведение",
                    "responsiveness": "Соответствие",
                    "vigilance": "Внимание",
                    "spatialOperations": "Пространственные операции",
                    "twoDOperations": "Двухмерные операции",
                    "threeDOperations": "Трехмерные операции",
                    "attentionConcentration": "Внимание и концентрация",
                    "dividedAttention": "Разделенное внимание"
                },
                "memory": {
                    "title": "Память",
                    "workingMemory": "Робочая память",
                    "topologicalMemory": "Топологическая память",
                    "physiognomicMemory": "Физиогномическая память",
                    "memoryWords": "Память на слова",
                    "figuralMemory": "Фигурная память",
                    "verbalMemory": "Вербальная память"
                },
                "executiveFunc": {
                    "title": "Исполнительные функции",
                    "shopping": "Покупки",
                    "planHoliDay": "Планирование выходного дня",
                    "logicalReasoning": "Логическое мышление",
                    "calculations": "Вычисления"
                },
                "visualField": {
                    "title": "Визуальное поле зрения",
                    "saccadicTraining": "Саккадический тренинг",
                    "exploration": "Исследование",
                    "overviewReading": "Обзор и чтение"
                }
            },
            "screening": {
                "title": "Скрининг"
            },
            "help": {
                "title": "Помощь"
            }
        },
        "messageBox": {
            "info": "ИНФОРМАЦИЯ",
            "warning": "ПРЕДУПРЕЖДЕНИЕ",
            "error": "ОШИБКА"
        },
        "messageBoxText": {
            "loginEnteredDataIncorrect": "Введенные данные не соответствуют правилам.",
            "connectionError": "Ошибка соединения.",
            "loginLoginPasswordIncorrect": "Неверный логин / пароль.",
            "registerSuccess": "Регистрация успешна!",
            "registerErrorUserExists": "Ошибка регистрации! Пользователь уже существует.",
            "resetEnteredDataIncorrect": "Неверные даные для сброса пароля.",
            "resetSuccess": "Пароль успешно сброшен.",
            "resetError": "Ошибка сброка пароля.",
            "changePassDataIncorrect": "Некорректные данные нового пароля.",
            "changePassSuccess": "Пароль изменен!",
            "unauthorized": "Вы не авторизованы! Выполните повторный вход в систему.",
            "changePassIncorrectOldPass": "Некорректный старый пароль."
        }
    }
]